ACR
AFG
AFR
ARO
ATO
AUT
BGL
BNG
BRI
CAC
CAM
CHO
COO
DBT
DKR
ECT
EGY
EON
ETL
EUR
ILO
INS
ITV
KSA
LAO
LUX
MID
MWD
MYM
NEE
NPL
ORX
PAK
PHE
PHN
ROM
SEB
SEE
SEK
SER
SKZ
SLK
THL
THR
TPA
TPH
TTT
TUN
TUR
XEF
XEH
XEO
XEU
XFE
XME
XSG
XSP
XTC
XXV
ZTO
single/BTC
single/BTU
single/CEL
single/CPW
single/GLB
single/LYS
single/MAT
single/MM1
single/PCL
single/PTR
single/SIN
single/SMA
single/SMP
single/STH
single/TEB
single/TMC
single/WTL
single/XFA
